Project 1: Exploratory Data Analysis
…
Joining data

In this step, we are joining these two datasets by the common variable of the scientific name ("nontropical_binomial" for the species dataset, "species_name" for the body mass dataset). We are doing a right join because we want to keep all of the data in the nontropical species dataset (ie, all of these species). However we are doing a right join because I prefer to keep the name "species_name" for each species, as this is easier to work with than "nontropical_binomial". By joining these two datasets like this, we lose the bird species that were in the body mass dataset that don't have a match in the nontropical species dataset (including all the tropical species). The species dataset maintained all 68 observations. The bird body mass dataset lost 68 observations (out of 136) that were not in the species dataset.

birddata <- right_join(mass, spp, by = c(species_name = "nontropical_binomial"))

TIDY

Since my datasets were already tidy, I am simplying making them untidy by spliting up the Diet type into two columns. Pivot wider fixes this mistake by making the diet category variable be its own column again.

birddata %>% pivot_longer(contains("Diet"))  #splits diet variable into two different columns

## # A tibble: 68 x 12
##    species_name adult_body_mass… female_body_mas… male_body_mass_g nontropical_n
##    <fct>                   <dbl>            <dbl>            <dbl>         <int>
##  1 Acanthiza p…             7.6               7.5             8.6             18
##  2 Aethopyga g…             6.12              5               7.25            23
##  3 Aimophila c…            15.3              15              15               75
##  4 Aimophila r…            18.8              17.9            19.3            276
##  5 Amazona fin…           302                NA              NA               22
##  6 Anas discors           398.              395             402              172
##  7 Buteo buteo            878.              946.            781               49
##  8 Calocitta c…           224.               NA              NA               26
##  9 Catharus gu…            30.6              NA              NA             1422
## 10 Charadrius …            42.3              46.1            44              122
## # … with 58 more rows, and 7 more variables: nontropical_lat <dbl>,
## #   nontropical_cv_logmass <dbl>, nontropical_litter_or_clutch_size_n <dbl>,
## #   nontropical_maximum_longevity_y <dbl>, nontropical_seasonal_var_temp <dbl>,
## #   name <chr>, value <fct>

birddata %>% pivot_longer(contains("Diet")) %>% pivot_wider(names_from = "name", 
    values_from = "value")  #fixes the mistake by putting the diet types all in one column.

## # A tibble: 68 x 11
##    species_name adult_body_mass… female_body_mas… male_body_mass_g nontropical_n
##    <fct>                   <dbl>            <dbl>            <dbl>         <int>
##  1 Acanthiza p…             7.6               7.5             8.6             18
##  2 Aethopyga g…             6.12              5               7.25            23
##  3 Aimophila c…            15.3              15              15               75
##  4 Aimophila r…            18.8              17.9            19.3            276
##  5 Amazona fin…           302                NA              NA               22
##  6 Anas discors           398.              395             402              172
##  7 Buteo buteo            878.              946.            781               49
##  8 Calocitta c…           224.               NA              NA               26
##  9 Catharus gu…            30.6              NA              NA             1422
## 10 Charadrius …            42.3              46.1            44              122
## # … with 58 more rows, and 6 more variables: nontropical_lat <dbl>,
## #   nontropical_cv_logmass <dbl>, nontropical_litter_or_clutch_size_n <dbl>,
## #   nontropical_maximum_longevity_y <dbl>, nontropical_seasonal_var_temp <dbl>,
## #   nontropical_Diet.5Cat <fct>
…
